%YAML 1.1
%TAG !u! tag:unity3d.com,2011:
--- !u!114 &11400000
MonoBehaviour:
  m_ObjectHideFlags: 0
  m_CorrespondingSourceObject: {fileID: 0}
  m_PrefabInstance: {fileID: 0}
  m_PrefabAsset: {fileID: 0}
  m_GameObject: {fileID: 0}
  m_Enabled: 1
  m_EditorHideFlags: 0
  m_Script: {fileID: 11500000, guid: dc10695282213b9448e2de0fde5868d9, type: 3}
  m_Name: lvl13
  m_EditorClassIdentifier: 
  EnptyGo: {fileID: 5288496958242537931, guid: 925819e82e5491345986b1bf2ca77ce5, type: 3}
  TrafficLengthMin: 3
  TrafficLengthMax: 3
  FreeZoneLengthMin: 8
  FreeZoneLengthMax: 8
  Line1Speed: -3
  Line3Speed: 3
  RotationSpeed: 5
  Speed: 21
  tilePrefabs:
  - {fileID: 2019655612747231602, guid: c1051c2739b21d343929ae9e750bd86e, type: 3}
  - {fileID: 2019655612747231602, guid: c1051c2739b21d343929ae9e750bd86e, type: 3}
  - {fileID: 1800476890057192978, guid: 6189a74af921dea4898cf19ffb8532e4, type: 3}
  - {fileID: 1249391569991342010, guid: b4841f07e4c9ae142b391cf89bceb65e, type: 3}
  CarsPrefabs:
  - {fileID: 6777152513155114169, guid: 14507f47b14ff0444936e6114ccc651d, type: 3}
  - {fileID: 6330166315913905424, guid: 07ff26120e3d89d488187f7527432c44, type: 3}
  - {fileID: 3508599143265185180, guid: 137a432f6f87873479d6ecfdbe335c7c, type: 3}
  - {fileID: 32572494955087605, guid: fd7a6601795b7b349b359c997f0c5a3a, type: 3}
  - {fileID: 4943809278801857462, guid: 37c64c43089470142b2df957ed8f2e9d, type: 3}
  - {fileID: 3373450343503341404, guid: e60c9159e734e3c4cbfe2c30e344d7ce, type: 3}
  - {fileID: 7085961418499067047, guid: 1b876bb0ba6f89b4fa7a32d5b33f674c, type: 3}
  - {fileID: 8592028074034593538, guid: 9932ddead61ba9644b43ce001925d173, type: 3}
  tileFinish: {fileID: 1381617272372311892, guid: acf2d1d03c8c4d64aba6a7dbd9023785,
    type: 3}
  LevelLength: 17
  Curvature:
  - HorizontalDistortion: 0
    VerticalDistortion: 1
  - HorizontalDistortion: -1
    VerticalDistortion: 1
  - HorizontalDistortion: 0
    VerticalDistortion: 1
  - HorizontalDistortion: 2
    VerticalDistortion: -2
